# mkinitcpio preset file for Ninja Boot'n'Nuke (nban)

ALL_config="/etc/mkinitcpio.d/nban.conf"
ALL_kver="/boot/vmlinuz-linux-ninja"

PRESETS=('default')

default_config="/etc/mkinitcpio.d/nban.conf"
default_image="/boot/nban.img"
#default_options=""

fallback_config="/etc/mkinitcpio.d/nban.conf"
fallback_image="/boot/nban-full.img"
fallback_options="-S autodetect"
