# From https://rmccurdy.com/.scripts/proxy/good.txt
# List of http proxies
101.109.113.168:3128
101.109.116.104:8080
101.128.68.113:8080
101.231.104.82:80
101.255.120.249:53899
101.255.54.177:56410
101.50.1.2:80
101.255.64.142:35401
101.51.138.13:80
101.51.141.46:37858
102.129.249.67:3129
102.176.160.70:61279
102.176.197.253:56580
102.176.160.107:8080
102.177.105.34:3128
102.140.4.14:53281
102.164.214.225:52260
103.10.171.132:41043
103.105.212.106:53281
103.106.148.202:48412
103.105.40.137:16538
103.106.119.170:50174
103.106.148.203:52110
103.105.40.145:16538
103.106.34.1:49714
103.10.81.172:8080
103.109.97.22:44527
103.111.55.18:54550
103.132.187.30:53281
103.12.161.196:53220
103.126.216.249:8080
103.11.99.66:8080
103.15.140.142:44759
103.16.63.125:35375
103.16.63.90:38831
103.198.172.4:50820
103.206.178.1:56357
103.211.232.44:53281
103.212.128.253:30403
103.212.128.228:36734
103.215.27.162:44896
103.216.82.44:8080
103.216.82.46:6666
103.216.82.28:6666
103.216.82.216:6666
103.218.101.230:8080
103.21.92.254:33929
103.22.173.230:8080
103.224.186.8:48430
103.221.254.125:51630
103.224.185.20:48993
103.226.1.101:8080
103.228.117.244:8080
103.226.49.83:23500
103.227.147.142:37581
103.229.177.50:57959
103.229.247.202:37927
103.235.199.38:56975
103.235.199.46:31611
103.236.114.38:49638
103.240.161.109:6666
103.240.161.59:48809
103.239.254.70:61967
103.241.204.225:8080
103.24.107.2:8181
103.240.168.138:60780
103.241.179.54:8888
103.241.227.99:54073
103.241.227.110:6666
103.240.206.152:55740
103.242.13.69:8082
103.242.14.68:31127
103.242.14.8:48791
103.242.15.86:42862
103.245.204.42:8080
103.245.188.86:54385
103.248.25.99:53281
103.248.42.88:8080
103.248.119.141:44633
103.250.153.202:54028
103.250.157.43:38641
103.250.153.242:31382
103.250.153.203:8080
103.250.152.62:36664
103.250.153.199:43369
103.250.166.16:48340
103.250.153.198:59451
103.250.157.46:37013
103.250.157.38:45879
103.250.157.34:44611
103.250.158.23:61219
103.251.58.51:61489
103.252.117.100:8080
103.28.121.58:80
103.26.54.94:8080
103.28.86.241:61954
103.31.45.174:8080
103.29.221.209:53229
103.42.162.58:8080
103.43.42.85:30477
103.4.66.82:47268
103.43.43.48:43488
103.46.209.74:8080
103.49.53.1:83
103.5.125.18:40211
103.54.221.122:53281
103.5.125.151:61625
103.51.26.233:30867
103.54.133.89:80
103.54.28.209:47683
103.57.21.30:53281
103.56.30.78:8080
103.65.193.153:30321
103.69.220.58:8080
103.72.217.173:31677
103.71.255.10:61352
103.74.68.106:41833
103.74.220.47:59000
103.75.162.68:36503
103.76.188.85:51052
103.78.254.57:8080
103.78.141.27:8080
103.78.213.226:44635
103.79.117.5:8080
103.81.77.37:82
103.85.220.98:60289
103.86.135.62:59538
103.86.155.78:34980
103.87.236.46:41183
103.89.253.249:3128
103.88.234.58:47888
103.88.234.251:32132
103.9.188.151:38439
103.9.134.73:65301
103.9.227.210:53281
103.99.177.247:80
103.94.171.238:60322
103.98.79.42:46525
103.95.98.179:8080
103.95.8.158:53281
104.168.211.80:8080
105.247.171.202:8080
105.29.64.195:41130
105.28.113.134:58321
106.104.151.142:58198
107.191.45.149:8121
107.191.45.149:8113
107.191.45.149:8135
108.61.186.207:8080
109.100.138.62:36572
108.61.222.139:8123
108.61.222.139:8118
109.106.139.225:45689
109.110.73.106:44967
109.164.112.109:23500
109.172.57.64:8081
109.172.57.250:23500
109.169.65.206:8080
109.194.2.126:61822
109.194.17.181:8080
109.196.82.214:46950
109.195.23.223:47414
109.199.133.161:23500
109.202.17.4:41101
109.236.211.186:36853
109.248.62.207:38478
109.251.252.123:50171
109.69.75.5:46347
109.74.143.45:36529
109.70.201.97:53517
109.71.181.170:53983
109.70.201.2:53517
109.75.140.158:59916
109.74.61.240:32231
110.167.30.50:8060
1.10.188.132:8080
1.10.187.149:44976
1.10.188.202:8080
1.10.188.42:48721
110.232.80.73:58655
110.74.196.229:443
110.74.195.120:55585
110.74.196.235:46140
110.86.137.72:9999
111.118.154.20:53281
111.118.135.132:56627
111.125.143.184:43244
111.160.121.238:8080
111.231.93.66:8888
111.231.90.122:8888
111.29.3.184:8080
111.29.3.193:80
111.29.3.194:8080
111.3.154.196:8060
111.67.92.66:8080
111.92.164.246:35548
112.109.198.106:3128
112.17.250.78:8080
112.84.178.21:8888
112.87.70.42:9999
112.87.71.161:9999
113.11.136.98:8080
113.121.172.19:808
113.124.92.147:61234
113.130.126.212:56646
113.161.68.146:8080
113.161.207.105:60626
113.254.114.24:8197
113.254.114.24:80
113.254.114.24:8380
113.53.231.133:3129
113.53.82.92:39726
114.130.92.14:49167
114.134.186.242:31166
114.57.238.254:51608
114.67.229.212:8080
115.159.31.195:8080
115.231.31.129:80
115.85.86.235:8080
116.114.19.211:443
116.114.19.204:443
116.212.131.27:33069
116.62.198.43:8080
116.71.132.53:8080
116.88.52.157:8080
117.141.99.38:53281
117.190.90.20:8060
117.191.11.103:8080
117.191.11.107:8080
117.191.11.101:8080
117.191.11.102:8080
117.191.11.102:80
117.191.11.104:8080
117.191.11.107:80
117.191.11.108:8080
117.191.11.104:80
117.191.11.103:80
117.191.11.105:8080
117.191.11.113:80
117.191.11.101:80
117.191.11.112:80
117.191.11.105:80
117.191.11.72:8080
117.191.11.112:8080
117.191.11.71:80
117.191.11.72:80
117.191.11.73:80
117.191.11.108:80
117.191.11.71:8080
117.191.11.73:8080
117.191.11.113:8080
117.191.11.80:8080
117.191.11.79:80
117.191.11.80:80
117.191.11.79:8080
117.191.11.75:8080
117.191.11.75:80
117.192.8.114:31134
117.206.83.26:50135
117.206.83.198:52071
117.206.83.46:39884
117.2.17.21:8080
117.240.138.2:33457
117.242.147.181:34035
117.245.139.4:8080
117.4.145.16:51487
117.54.250.58:38508
117.54.250.2:60791
117.6.161.118:53281
117.90.137.101:9000
117.90.252.105:9000
117.90.252.47:9000
1.179.148.9:37010
1.179.147.5:39330
1.179.185.253:8080
118.172.201.251:42287
118.172.211.37:58728
118.172.201.60:46896
118.173.233.39:48988
118.173.232.219:57499
118.173.233.31:59669
118.173.232.5:34413
118.173.232.68:35573
118.173.232.61:47115
118.174.220.14:43473
118.174.220.130:41419
118.174.220.131:56183
118.174.220.61:60070
118.174.232.234:44618
118.174.232.92:45759
118.174.234.83:38006
118.174.44.148:8080
118.174.233.41:41469
118.174.46.162:8080
118.175.93.112:52693
118.175.207.129:48139
118.175.93.189:49774
118.175.93.94:30613
118.25.183.14:8082
118.25.35.202:9999
1.186.151.206:36253
118.69.61.212:53281
118.69.219.185:55184
1.186.242.20:39098
118.97.191.162:8080
118.97.74.2:8088
118.97.191.162:80
119.139.196.13:3128
119.15.82.222:37790
119.161.98.131:3128
119.161.78.100:3128
119.15.91.226:8080
119.190.189.209:8060
119.192.179.46:41112
119.252.160.34:8080
119.41.236.180:8010
1.197.203.201:9999
1.197.203.211:9999
119.82.253.210:41733
119.82.253.155:59485
1.198.73.186:9999
1.20.101.149:44778
120.198.76.45:41443
120.236.128.201:8060
120.234.138.99:53779
120.27.210.60:8080
1.20.97.122:44279
1.20.97.4:52237
1.20.99.218:36117
1.20.99.178:34781
121.15.254.156:888
121.139.218.165:31409
121.232.194.6:9000
121.33.220.158:808
121.40.66.129:808
12.157.150.230:51576
1.215.70.130:44072
12.189.125.89:30992
122.102.41.82:55783
122.154.97.188:8080
122.201.112.114:80
1.2.250.139:8080
123.108.201.26:61280
123.1.170.138:3128
123.169.97.217:9999
123.163.96.254:9999
123.245.12.146:8118
123.31.43.63:3128
124.158.105.58:3128
124.156.108.71:82
124.158.177.171:23500
124.192.27.246:3128
124.193.37.5:8888
124.248.190.215:8080
124.41.211.139:39509
124.41.211.188:46857
124.41.213.211:35784
124.41.211.40:33085
124.41.211.186:43523
124.41.213.36:46176
124.41.240.205:33780
125.107.186.110:8118
125.167.100.250:8080
125.209.126.18:8080
125.209.116.94:60364
125.209.116.146:46258
125.209.99.14:33472
125.209.116.154:52723
125.25.165.106:43730
125.25.206.28:8080
125.26.7.85:54888
125.26.7.115:30012
125.26.7.124:61642
125.27.251.160:48467
125.26.99.244:33510
125.26.99.212:51591
125.27.251.57:41425
125.63.83.42:80
125.62.213.30:8000
125.62.27.53:3128
128.201.97.155:53281
128.201.97.154:53281
128.201.97.158:53281
129.204.3.48:9090
131.0.4.215:8080
131.161.68.17:60817
131.161.68.13:60817
131.255.35.193:36922
133.130.112.232:8080
1.32.59.217:52740
134.119.214.206:1080
134.119.207.5:1080
134.119.214.199:1080
134.19.218.94:3129
134.209.126.148:8080
134.249.151.4:40046
136.243.47.220:3128
136.228.128.14:61158
136.243.58.50:8080
138.121.130.50:50600
138.121.32.26:23500
138.122.51.68:37207
138.122.51.101:30247
138.204.179.162:44088
138.255.240.66:41466
138.219.249.193:3128
138.219.133.22:8080
138.36.106.251:42651
138.255.165.86:40600
138.219.223.166:3128
138.36.20.43:34307
138.68.132.217:3128
138.68.232.206:8080
138.99.93.236:53281
138.99.93.238:53281
139.255.43.6:43122
139.255.94.81:53281
139.5.71.94:23500
140.143.153.114:8888
14.102.69.170:38339
14.207.19.95:8080
143.137.220.46:33662
143.255.142.80:8080
143.255.52.102:40687
143.255.52.118:58909
144.217.229.159:8080
144.217.74.227:8080
144.217.229.156:8080
144.217.229.153:8080
144.48.109.178:56269
144.48.111.217:32293
146.196.97.226:3128
148.217.94.54:3128
148.69.95.42:44516
149.129.116.61:8080
149.202.34.104:3128
149.202.217.218:80
149.3.91.202:3128
150.109.55.190:83
151.237.126.34:33695
154.0.15.166:46547
153.232.147.21:8080
154.117.143.126:8080
154.236.162.48:8080
154.66.109.93:41537
154.66.216.70:44561
154.66.110.90:54379
154.72.199.38:32954
154.72.85.198:54190
154.72.197.106:38844
155.93.109.218:51689
154.79.244.66:46973
154.73.65.129:45691
156.0.229.194:40956
157.100.52.120:32652
158.58.131.27:43733
158.46.127.222:52574
158.58.197.227:51481
159.138.3.119:80
159.138.20.247:80
159.138.21.170:80
159.138.22.112:80
159.138.5.222:80
159.138.1.185:80
159.192.98.224:3128
159.192.97.80:43278
159.224.220.63:44299
159.224.209.6:38536
159.224.83.100:8080
159.224.37.181:34049
159.224.243.185:37793
159.65.164.58:80
159.89.83.24:3128
162.155.179.211:58065
162.220.108.59:8080
162.220.108.59:80
162.248.247.153:32592
162.249.248.218:53281
163.172.148.169:3128
163.172.205.110:3128
163.172.189.32:8811
163.153.214.50:8080
163.172.100.3:8123
163.204.240.170:9999
163.204.240.70:9999
163.204.241.98:9999
163.53.209.9:33701
163.53.209.7:50061
163.53.198.58:49870
165.22.162.120:80
165.227.71.60:80
165.90.95.114:53281
167.86.104.66:3128
167.99.40.249:3128
167.86.97.108:80
168.205.87.173:61134
168.90.30.180:20183
169.239.11.21:31241
170.82.73.140:53281
170.82.231.26:47786
171.244.166.30:8080
171.97.170.83:8080
173.193.1.36:3129
173.193.1.34:3129
173.193.1.35:3129
173.212.202.65:80
173.249.30.197:8118
174.136.111.210:8080
175.100.98.78:39001
175.100.30.156:25
175.184.232.62:6666
176.101.177.189:8080
176.111.252.57:49645
176.111.73.57:8081
176.112.106.230:33996
176.118.51.176:39627
176.120.217.37:53281
176.122.117.12:45806
176.123.164.240:58488
176.192.35.2:61800
176.196.225.10:57804
176.192.8.6:53315
176.196.84.138:51336
176.197.237.102:55950
176.235.184.194:8080
176.223.51.237:43861
176.241.89.35:51123
176.36.20.67:61935
176.36.214.42:30460
176.36.89.203:53325
176.31.69.183:8080
176.62.188.158:56351
176.56.23.14:35340
176.62.182.29:58350
176.63.149.61:31286
176.99.140.94:39763
177.107.52.130:3129
177.130.59.121:36354
177.136.252.7:3128
177.137.151.249:57992
177.231.94.9:80
177.222.229.243:23500
177.241.244.219:56792
177.44.88.168:33922
177.85.117.230:57240
177.85.78.4:8080
177.86.158.102:38709
177.91.127.56:43014
178.132.220.241:8080
178.151.143.112:31260
178.172.201.137:8888
178.18.62.195:80
178.212.54.137:8080
178.215.76.193:53281
178.217.216.184:49086
178.219.247.61:44448
178.217.33.61:51698
178.219.172.9:60067
178.222.249.230:39892
178.239.225.245:45932
178.238.126.91:8080
178.252.166.122:32769
178.54.121.111:60082
178.47.139.50:8080
178.64.190.133:46688
178.72.74.40:56258
178.75.27.131:41879
178.77.197.96:55555
179.124.11.128:58092
179.124.240.210:56869
179.124.242.34:41886
180.118.128.26:9000
180.118.128.103:9000
180.118.128.6:9000
180.118.247.196:9000
180.180.170.188:8080
180.180.152.75:39364
180.214.250.242:8080
180.250.219.58:53281
180.92.238.232:8080
180.87.195.22:44997
181.10.135.221:23500
181.112.216.82:51512
181.112.42.38:38264
181.113.35.6:33314
181.113.20.186:65103
181.113.225.198:53281
181.129.127.234:57985
181.129.52.186:55842
181.129.181.250:53539
181.129.66.138:55679
181.129.183.19:53281
181.143.157.242:50942
181.129.98.146:8080
181.143.79.154:48749
181.174.34.254:51979
181.196.242.126:53281
181.198.97.241:30072
182.16.162.210:53281
182.160.103.227:53281
182.16.171.26:53281
182.16.162.89:32247
182.16.181.90:54944
182.16.186.106:23500
182.23.7.227:8080
182.253.169.58:8080
182.253.197.60:8080
182.253.191.106:8080
182.253.197.60:80
182.34.37.198:9999
182.35.84.213:9999
182.48.69.89:8080
182.52.51.59:38238
182.52.51.36:52165
182.52.238.52:50619
182.52.51.35:60017
182.52.51.33:56059
182.52.51.48:35246
182.52.238.44:37758
182.53.206.44:45900
182.52.90.43:33326
182.53.206.47:47592
182.61.160.79:80
182.61.179.157:8888
182.54.160.233:37177
182.92.169.109:3128
183.146.213.198:80
183.230.179.164:8060
183.245.98.6:8118
183.87.106.126:23500
183.87.153.98:49602
183.88.214.47:8080
183.87.14.250:44915
184.75.249.195:80
185.103.88.103:61259
185.110.136.23:31532
185.125.120.135:41441
185.132.133.183:8080
185.132.133.180:8080
185.132.133.179:8080
185.131.60.103:53281
185.132.133.196:8080
185.132.133.185:8080
185.132.133.173:8080
185.132.133.209:8080
185.132.133.187:8080
185.132.133.188:8080
185.132.133.211:8080
185.132.133.195:8080
185.132.133.206:8080
185.132.178.201:8080
185.132.178.132:8080
185.132.179.109:8080
185.132.178.210:8080
185.132.179.113:8080
185.132.178.203:8080
185.132.179.115:8080
185.132.179.112:8080
185.132.178.138:8080
185.132.179.108:8080
185.138.69.110:39274
185.138.123.78:55630
185.142.208.160:53494
185.14.250.204:58185
185.148.220.11:8081
185.146.112.24:8080
185.17.18.133:53281
185.172.215.53:8080
185.190.40.115:31747
185.188.218.10:60928
185.189.253.21:56630
185.189.211.70:8080
185.20.115.114:57236
185.198.184.14:48122
185.208.100.197:59732
185.208.100.198:35730
185.233.94.184:53281
185.242.168.118:8080
185.255.46.13:53281
185.255.46.100:30678
185.32.120.177:60724
185.33.113.202:443
185.34.52.202:80
185.44.231.68:60550
185.44.231.70:60550
185.51.213.31:8080
185.50.56.230:32231
185.51.213.28:8080
185.57.164.167:80
185.61.92.228:33060
185.79.243.137:48488
185.89.0.22:34927
185.89.3.241:34927
185.94.218.57:43403
185.99.64.75:35839
186.103.175.158:3128
186.103.148.204:3128
186.137.31.81:39496
186.151.31.54:59819
186.15.233.218:45999
186.159.2.241:43459
186.183.185.82:48209
186.167.33.244:42550
186.211.106.227:34334
186.211.180.154:53281
186.219.210.86:52338
186.219.210.70:60446
186.219.96.47:46278
186.225.106.114:46312
186.226.179.2:56089
186.226.172.170:23500
186.248.146.170:42129
186.249.213.101:53482
186.248.170.82:53281
186.249.213.65:52018
186.237.221.27:8080
186.250.56.135:8080
186.42.252.122:59882
186.42.124.190:58607
186.4.251.135:8080
186.47.83.126:80
187.103.89.214:8080
187.109.210.153:47351
187.111.192.74:56595
187.120.253.119:30181
187.16.4.125:8080
187.1.32.109:8080
187.18.125.34:3128
187.178.238.177:54340
187.189.75.124:53281
187.243.253.182:33796
187.44.1.167:8080
187.44.167.78:60786
187.73.68.14:53281
187.87.204.210:45597
187.87.38.207:45644
188.0.168.196:8080
187.95.34.10:8080
188.120.232.181:8118
188.128.84.36:55725
188.129.161.55:36631
188.138.192.154:47988
188.133.165.206:56145
188.163.170.130:41209
188.168.27.71:36733
188.168.96.34:34298
188.173.225.165:45633
188.17.152.172:56791
188.186.184.42:53281
188.235.138.182:34467
188.35.167.7:45619
188.27.137.163:30987
188.43.225.109:8080
188.43.52.166:47362
188.72.6.98:45616
188.75.82.101:40387
188.92.242.180:52048
188.94.164.178:8080
189.124.195.185:37318
189.89.246.242:50832
190.109.169.41:53281
190.119.199.18:57333
190.128.162.58:80
190.12.58.187:53281
190.122.187.230:55578
190.124.34.221:47039
190.128.203.214:3128
190.145.200.126:53281
190.149.165.150:50806
190.149.216.74:51363
190.149.216.146:47463
190.149.165.162:51489
190.152.245.20:8080
190.152.5.126:53040
190.166.249.44:46205
190.184.144.82:36413
190.181.113.213:53281
190.184.144.2:56324
190.186.89.150:35759
190.196.15.43:3128
190.211.115.66:43260
190.214.56.238:35933
190.221.217.117:8085
190.242.41.133:8080
190.249.158.128:53202
190.248.153.162:8080
190.57.143.66:50719
190.7.129.132:8080
190.68.37.98:8080
190.63.144.26:48302
190.63.134.220:61535
191.103.253.250:40755
191.240.152.135:80
191.241.228.118:20183
191.243.218.245:53281
191.7.207.51:38268
191.96.42.106:3129
191.96.50.194:3129
192.117.146.110:80
192.99.191.238:8080
193.107.106.95:32952
193.142.219.104:52307
193.138.50.7:44921
193.188.254.67:53281
193.19.165.222:53281
193.233.153.243:8080
193.41.88.58:53281
193.242.177.105:53281
193.68.19.34:40377
193.93.78.132:32231
194.126.183.171:44370
194.127.111.218:8080
193.95.106.249:3128
194.126.183.141:53281
194.114.128.149:61213
194.181.82.190:35447
194.208.49.78:37130
194.44.172.254:23500
194.44.243.186:47312
194.44.211.246:80
195.13.201.98:30716
195.138.92.152:35245
195.16.120.147:36524
195.170.15.66:8080
195.20.102.248:33021
195.206.4.16:31154
195.209.176.101:50497
195.206.34.238:31499
195.208.36.45:30768
195.209.131.19:45180
195.22.239.150:49484
195.211.174.36:56746
195.238.85.215:50948
195.230.115.241:8080
195.228.65.108:52378
195.24.154.3:51749
195.246.57.154:8080
195.39.130.67:8080
195.62.70.22:8080
195.69.135.78:46704
195.80.140.212:8081
195.9.209.10:35242
195.91.249.211:54698
196.0.111.186:60053
195.98.78.180:50018
196.43.235.42:53281
196.43.235.238:53281
196.43.235.30:53281
196.43.235.193:53281
196.43.235.17:53281
197.210.246.30:8080
197.210.124.2:80
197.211.38.187:50272
197.221.113.65:42677
197.254.62.14:41838
197.254.4.130:57610
198.134.28.37:38966
198.50.172.165:8080
198.50.172.162:8080
199.195.248.24:8080
200.111.182.6:443
200.122.211.6:8080
200.150.86.138:44677
200.178.251.146:8080
200.192.255.102:8080
200.195.28.21:3128
200.199.143.162:8080
200.206.70.162:20183
200.202.229.218:8080
200.216.227.141:53281
200.255.122.170:8080
200.255.122.174:8080
200.236.216.205:34064
200.53.221.25:32104
200.5.119.219:8080
200.69.81.198:58593
200.89.159.149:8000
200.85.123.154:53281
201.159.106.130:4042
201.158.60.153:59423
201.182.223.16:37492
201.16.151.65:44610
201.184.130.194:51406
201.236.248.216:52006
201.28.37.122:8080
201.245.172.157:80
201.54.31.14:55282
201.59.201.92:40417
201.86.99.130:39900
202.109.157.67:9000
202.138.242.101:30487
202.137.25.8:8080
202.142.158.114:8080
202.166.207.218:56576
202.29.20.151:43083
202.52.234.236:35931
202.58.199.157:61108
202.58.199.158:61108
202.57.52.18:49032
202.57.43.26:51294
202.7.52.5:47888
202.91.40.25:53281
203.104.29.86:80
203.123.255.142:30373
203.130.46.108:9090
203.142.77.115:39597
203.189.136.224:8080
203.205.34.52:25
20.41.41.145:3128
206.201.6.117:8080
207.154.200.199:3128
206.54.183.169:4433
206.72.203.42:80
207.180.226.111:3128
208.47.176.252:80
208.180.237.55:31012
209.159.158.234:8080
209.97.153.69:3128
210.212.73.61:80
210.22.5.117:3128
210.5.106.202:37020
212.112.123.15:36771
212.200.113.189:8080
212.233.119.42:60379
212.237.38.168:8080
212.42.113.240:60873
212.55.100.204:53886
212.64.51.13:8888
212.75.202.74:54619
212.76.179.249:3128
212.77.138.161:41258
212.86.114.204:8080
212.90.168.150:52589
212.93.98.101:8080
213.110.122.220:56871
213.136.87.38:8118
213.149.152.151:58221
213.145.137.102:39364
213.137.36.169:41258
213.16.81.131:21231
213.21.18.18:50510
213.222.34.200:53281
213.241.10.15:53947
213.33.157.204:44139
213.32.252.120:45728
213.58.202.70:54214
213.6.162.6:8080
213.59.251.247:8080
213.80.225.26:8080
217.119.171.126:36090
217.15.143.239:8080
217.150.56.125:8080
217.174.184.234:8081
217.182.120.161:8080
217.182.120.167:8080
217.182.120.163:8080
217.23.69.146:8080
217.64.109.231:45282
217.64.109.234:45282
218.60.8.99:3129
219.239.142.253:3128
221.121.12.238:36077
221.120.163.253:40844
221.224.136.211:35101
221.226.94.218:110
221.229.252.98:9797
222.175.171.6:8080
222.249.238.138:8080
222.66.94.130:80
222.74.237.246:808
23.237.23.73:3128
24.172.34.114:40327
24.37.245.42:47342
24.35.1.5:52867
27.116.50.74:59598
27.116.51.115:8080
27.135.210.77:80
27.123.223.47:8080
27.147.219.102:49464
27.147.136.178:47678
27.191.234.69:9999
27.204.87.254:9999
27.208.26.23:8060
31.131.67.14:8080
31.148.48.151:41917
31.173.238.134:36537
31.220.183.217:53281
31.209.97.66:57482
31.28.0.204:8080
31.41.68.79:49480
31.42.254.24:30912
31.43.135.58:41962
31.47.189.14:38473
31.41.92.154:23500
35.240.23.37:80
36.25.243.50:80
36.25.243.251:80
36.25.243.51:80
36.255.86.231:83
36.37.160.224:23500
36.37.223.208:57683
36.37.219.198:53281
36.37.183.214:30011
36.37.113.4:36485
36.55.230.146:8888
36.66.209.3:8080
36.66.173.247:31993
36.66.237.91:8080
36.67.139.27:50466
36.67.109.91:38953
36.67.142.97:8080
36.67.223.185:8080
36.67.57.45:53367
36.67.76.234:8080
36.67.52.99:53281
36.67.96.7:37554
36.71.150.87:8080
36.83.136.150:8080
36.85.193.118:8080
36.89.129.183:38992
36.89.151.27:59760
36.89.143.171:60641
36.89.181.155:60165
36.89.188.11:43772
36.89.192.115:56432
36.89.181.161:50204
36.89.232.138:23500
36.89.41.113:8080
36.91.194.25:8080
36.91.51.233:3128
37.111.42.210:8080
37.17.38.196:53281
37.187.116.199:80
37.221.204.206:47424
37.235.67.178:34450
37.59.136.91:80
37.57.129.4:4444
37.57.15.43:33761
37.57.216.4:4444
37.59.35.174:8080
38.134.10.58:53281
39.108.2.79:8000
39.137.107.98:80
39.137.69.10:8080
39.137.107.98:8080
39.137.69.6:8080
39.137.69.10:80
39.137.69.7:80
39.137.69.6:80
39.137.69.7:8080
39.137.168.230:8080
41.160.114.37:12354
41.164.247.186:53281
41.180.65.27:35963
41.170.83.205:40165
41.169.11.210:45088
41.170.12.92:37444
41.190.139.46:8080
41.217.219.49:40841
41.217.216.45:33602
41.79.197.150:8080
41.85.191.6:57797
41.87.29.130:8080
42.115.88.12:37961
42.115.26.154:8080
43.224.116.218:51370
43.230.196.98:36569
43.230.157.150:51467
43.239.205.9:61796
45.112.56.142:51618
45.112.57.230:61222
45.114.182.185:46112
45.115.171.30:47949
45.117.74.89:8060
45.120.119.55:59565
45.127.121.194:53281
45.125.61.193:32804
45.166.244.89:8080
45.230.8.20:51200
45.248.42.200:8080
45.43.46.73:9999
45.5.152.39:50294
45.76.43.163:8080
46.102.73.244:53281
46.151.192.170:37636
46.16.219.205:3128
46.173.127.93:44366
46.173.105.151:41258
46.188.82.11:38435
46.183.56.107:49725
46.201.225.7:50866
46.225.242.246:1080
46.227.162.98:51558
46.229.187.169:53281
46.253.96.183:41258
46.38.35.62:32540
46.63.104.139:8080
46.73.33.253:8080
46.99.163.166:8080
46.8.28.17:8080
47.106.140.89:8080
47.52.231.140:8080
47.88.245.100:8118
47.94.200.124:3128
47.94.89.87:3128
49.128.181.13:8081
49.156.42.188:8080
50.203.239.18:80
50.203.239.21:80
50.203.239.31:80
50.201.51.216:8080
50.250.56.129:46456
50.244.252.166:8081
51.158.68.26:8811
51.158.98.121:8811
51.15.38.26:3128
51.158.119.88:8811
51.254.182.63:60941
51.38.71.101:8080
5.140.233.65:58099
5.141.81.65:61853
5.160.14.130:54039
5.189.193.44:42209
5.206.230.62:59355
5.2.211.232:43248
54.180.123.253:8080
54.36.139.108:8118
54.39.53.104:3128
54.38.110.35:47640
54.38.37.42:80
5.56.103.45:48014
5.58.95.179:8080
5.58.85.32:39762
5.58.81.19:8080
58.254.220.116:53579
59.108.125.241:8080
59.45.108.215:80
60.13.42.140:9999
59.91.122.1:54086
60.168.60.28:8118
60.246.89.102:53281
60.9.1.81:80
60.9.1.80:80
61.5.67.247:8080
62.106.122.92:53544
62.103.74.230:33805
62.141.86.173:80
62.122.18.7:49693
62.162.228.66:58960
62.182.52.82:54022
62.182.206.19:37715
62.213.14.166:8080
62.205.169.74:53281
62.24.109.89:60045
62.73.127.10:37790
62.89.68.220:46862
62.99.53.95:34769
62.99.68.79:31094
64.20.33.202:8080
67.60.137.219:35979
68.183.188.100:3128
68.183.210.90:3128
69.171.68.90:8080
71.17.253.132:60508
72.240.107.189:45552
74.116.59.8:53281
75.151.213.85:8080
75.80.242.9:41007
77.106.179.42:42558
77.233.10.37:54210
77.222.152.137:48095
77.242.5.173:8080
77.244.16.5:30614
77.28.97.34:48458
77.38.64.116:35202
77.85.169.19:36776
78.128.77.171:8080
78.110.154.177:59888
78.186.203.137:50976
78.187.50.200:41264
78.30.192.84:51027
78.29.42.10:4550
78.57.227.227:53281
78.62.214.242:60678
79.104.25.218:8080
79.106.165.238:57856
79.106.45.168:8080
79.106.97.77:8080
79.120.16.38:49143
79.120.209.193:52177
79.136.232.174:58992
79.171.13.182:39282
79.171.13.166:33117
79.170.202.194:37557
79.98.77.242:8080
79.190.145.141:3128
80.211.105.235:8080
80.188.212.2:46723
80.240.115.254:31817
80.253.152.210:8080
80.76.240.168:36379
80.91.118.129:53281
81.163.57.147:41258
81.163.62.136:41258
81.16.8.177:47341
81.18.33.26:46920
81.198.119.241:39607
81.28.164.55:52658
82.135.197.104:50230
82.147.120.41:60682
82.214.135.134:44093
82.85.185.185:34734
82.99.223.94:47209
83.171.114.92:36307
83.219.1.201:41380
83.234.206.165:41014
84.217.82.227:60702
84.240.19.243:39461
84.46.167.73:42567
84.42.253.252:52854
84.52.76.91:41258
84.52.94.221:42639
84.52.84.157:44331
85.159.2.171:8080
85.193.195.236:53233
85.196.147.146:51702
85.198.142.186:8081
85.21.240.153:8080
85.235.190.18:42494
85.223.157.204:40329
85.237.238.53:8080
85.30.48.222:30228
85.9.217.48:3355
86.100.72.118:61776
86.110.240.166:32246
86.111.88.10:53069
86.123.166.109:8080
86.125.112.183:47014
86.34.158.116:8080
87.116.201.80:8080
87.103.234.116:3128
87.107.18.85:8080
87.197.137.223:55622
87.229.143.10:48872
87.76.10.119:53281
87.250.218.12:44168
88.147.125.243:35883
88.247.10.31:8080
88.86.82.133:8081
88.86.94.91:31698
88.87.81.217:55886
88.84.223.1:33519
88.85.246.20:8080
89.102.198.78:38412
89.102.2.149:8080
89.109.239.183:47837
89.140.125.17:80
89.185.204.188:57914
89.189.176.17:40990
89.189.174.121:52636
89.22.210.191:41258
89.223.80.30:8080
89.232.34.178:8080
89.250.17.209:8080
91.135.205.154:43166
91.185.222.11:80
91.187.116.232:44900
91.194.239.122:8080
91.190.85.97:34286
91.192.4.29:8080
91.203.240.210:80
91.205.131.110:37364
91.205.51.27:57492
91.211.246.60:80
91.213.119.246:31551
91.211.122.23:39784
91.218.46.86:8080
91.217.42.4:8080
91.222.154.39:58124
91.225.5.43:59039
91.236.32.70:8080
91.237.123.201:41258
91.238.223.41:57420
91.92.208.182:45214
92.242.240.34:53035
92.247.151.174:59284
92.247.148.126:8080
92.244.36.73:47150
92.255.196.91:8080
92.255.188.159:53281
92.255.205.227:30359
92.39.54.91:60446
92.50.31.125:30455
93.116.185.57:32260
93.116.57.4:54838
93.157.163.66:35081
93.179.231.41:41258
93.42.192.110:38307
94.101.141.242:80
94.127.217.66:40115
94.136.157.121:61327
94.153.194.14:41258
94.153.169.22:59177
94.177.232.21:8080
94.180.249.187:38051
94.198.195.42:59444
94.230.119.144:43305
94.230.243.6:8080
94.232.126.225:34678
94.242.55.108:10010
94.236.198.160:33822
94.232.57.231:51064
94.242.58.108:10010
94.242.58.108:1448
94.247.241.70:53640
94.28.94.154:46966
94.253.15.25:45215
95.134.195.78:54762
95.137.240.3:35632
95.158.153.57:49753
95.158.40.131:51739
95.167.123.54:58664
95.158.62.178:51332
95.161.189.26:61522
95.168.185.183:8080
95.172.62.114:49174
95.181.37.114:47209
95.215.97.203:33631
95.47.116.73:63141
95.47.116.93:58865
95.67.100.105:42675
95.71.125.50:49882
95.71.126.250:55705
95.79.57.206:53281
95.87.14.3:34731
95.87.14.47:45522
96.87.188.193:61748
96.80.89.69:8080
96.9.74.160:39305
96.9.79.219:8080
98.172.142.99:8080
